,delGcox0PerC,delGcox0,delGcox,delGcat0,delGcat,delGan0_O2,delGan0_HCO3,delGan_O2,delGan_HCO3,delGdis_O2,delGdis_HCO3,lambda_O2,lambda_HCO3
C50.452488687782804H68.51809954751131N0.4010989010989011O6.939883645765999P0.5785391079508727S0.709114414996768,91.31771300448429,4607.2058823529405,-7717.826169505226,-26898.689479638004,-28971.952845989148,-74.90391255605377,18.175138803207943,-84.05030009494426,16.20298135102692,-465.1162790697675,-536.544348833002,0.013152926935941,0.01907870460518683
C39.33180778032037H57.19810395554103N0.5809087937234391O9.386073880353056P0.34390323635174896S0.7969924812030075,86.97178928820773,3420.7576985943124,-5938.581017817041,-20404.58193854201,-22011.343938526144,-60.53567879583773,16.805763561231416,-69.44015060301156,13.991555743665286,-465.11627906976736,-526.7956575806468,0.017976009532712337,0.024568568590570238
C34.832028701891716H46.52870189171559N0.5893672537508154O10.75146771037182P0.37573385518590996S0.7615786040443575,79.62059553349877,2773.3468688845405,-5161.367934244262,-17223.623140900192,-18651.482366813638,-36.23160049627808,14.28621896880965,-45.2773157852765,9.428492119070885,-465.11627906976753,-506.6801726676836,0.022509683414306276,0.027671187449693567
C31.896903820816863H39.3435441370224N0.6215415019762845O12.151515151515152P0.3214756258234519S0.7042160737812911,72.25046417249246,2304.5661067193664,-4627.331792143492,-14995.050642292485,-16297.790340092077,-11.864911812389643,11.464935998990484,-20.760116969892103,4.596580874377396,-465.1162790697675,-485.3795190411305,0.027264810310313817,0.03006395895952725
C29.19843085975809H34.2111801242236N0.7273618829682903O13.166721150702845P0.2906178489702517S0.6234063419418111,66.06075371145796,1928.870349787513,-4155.888428907862,-13128.953563255965,-14314.015764851338,8.599139703083353,8.827241597970925,-0.04036931134274724,0.20832180510320697,-465.11627906976736,-466.03463008837,0.03249094575544886,0.03257247718270315
C26.293563068920676H29.29583875162549N0.80851755526658O13.278283485045513P0.25260078023407023S0.5575422626788037,60.800377106541895,1598.65855006502,-3679.930491021686,-11365.506144343306,-12425.658727082926,6.361407600265963,6.361407600265878,-3.8424319565365277,-3.8424319565366076,-465.1162790697673,-465.1162790697673,0.03712268759706396,0.03712268759706396
C23.218264248704664H24.925194300518136N0.8455310880829016O12.69591968911917P0.20984455958549222S0.5391839378238342,56.577804122848605,1313.638406735751,-3205.754270171339,-9712.05825777202,-10643.7766120676,4.211842640252641,4.211842640252598,-7.398462452573137,-7.398462452573195,-465.1162790697675,-465.11627906976736,0.04300332798212313,0.04300332798212312
C19.767890479153703H20.50840074673304N0.9144368388301183O11.429060360920971P0.17766023646546358S0.5214685749844431,52.734271413731214,1042.4453018046045,-2693.5215586662725,-8017.592268201617,-8805.49469874488,2.1069525856618725,2.1069525856617872,-10.771515266099877,-10.771515266099945,-465.1162790697675,-465.1162790697676,0.05159786921096313,0.051597869210963127
C15.748613678373383H15.708872458410351N1.0030807147258163O9.269562538508934P0.14017252002464572S0.6022797288971041,48.82083333333332,768.8604436229203,-2117.527334096678,-6183.665819470116,-6807.756645771215,-0.19837837837835082,-0.19837837837839345,-14.520105115474347,-14.520105115474372,-465.1162790697676,-465.1162790697677,0.06618864295541332,0.06618864295541332
C10.5382897255903H10.590938098276963N1.1305041480536056O6.921825143586471P0.103063178047224S0.7817485641352904,39.496475610863826,416.2253031269941,-1375.0591632343253,-3812.9706126356086,-4228.108241843546,-6.471385000000083,-6.471385000000083,-25.120442737289654,-25.12044273728965,-465.1162790697673,-465.11627906976753,0.10406446835444073,0.10406446835444075
