,delGcox0PerC,delGcox0,delGcox,delGcat0,delGcat,delGan0_O2,delGan0_HCO3,delGan_O2,delGan_HCO3,delGdis_O2,delGdis_HCO3,lambda_O2,lambda_HCO3
C41.90014197823H54.53762423095125N0.403691433980123O8.974443918599148P0.6280170373876006S0.9020350212967345,85.27222567346247,3572.918362517747,-6329.402433203615,-21501.547373402736,-23244.83571872608,-54.91668295024573,16.24694498234952,-64.5754750824737,12.357910767139169,-465.1162790697676,-519.5940133385352,0.017231388891452454,0.02288473579863302
C34.81614135625597H40.67526265520535N0.5023877745940784O11.765998089780325P0.42024832855778416S0.8390639923591213,73.4458473355737,2557.10100286533,-5082.906659076377,-16505.01017191977,-17942.35791336061,-15.817016322611863,11.944750774793349,-25.153969539569637,5.025446066998563,-465.1162790697675,-487.27009783239873,0.02452087466177363,0.02743761696631935
C31.752034466251796H35.275251316419336N0.6524652943992341O13.160363810435616P0.3231211105792245S0.646242221158449,66.87051108095883,2123.2747726184775,-4534.496360240673,-14362.176495931068,-15655.71242329729,5.9219681893562495,9.187710432910905,-2.8697164391409355,0.6901563578679184,-465.11627906976736,-468.15871523687474,0.029525744350206426,0.02994746319541792
C29.111689540937057H31.973024136299102N0.7851396119261713O14.06578324656886P0.25934690014197825S0.5489824893516327,61.94940744232927,1803.4519167061053,-4087.805098329174,-12694.244581164223,-13868.066041323727,6.919170472573413,6.919170472573441,-2.867389742358297,-2.8673897423582773,-465.11627906976753,-465.1162790697674,0.033331892705876304,0.033331892705876304
C26.28148854961832H28.422232824427482N0.8396946564885496O13.786736641221374P0.25047709923664124S0.5100190839694656,58.74063827469777,1543.791412213741,-3653.2155555694535,-11181.315577290077,-12237.673569513481,5.333035291952385,5.333035291952356,-5.5089583348934426,-5.508958334893469,-465.1162790697674,-465.1162790697675,0.03755675603897858,0.037556756038978574
C23.495049504950494H24.61999057048562N0.8694012258368694O12.937293729372938P0.20886374351720888S0.4681753889674682,55.74530732647039,1309.7387553041012,-3232.2019804128436,-9763.169212635545,-10702.073441725452,3.7684732034613972,3.7684732034614115,-7.990620841174781,-7.9906208411747865,-465.1162790697676,-465.1162790697676,0.04271374708066778,0.04271374708066778
C20.625570776255707H21.423287671232877N0.8662100456621005O12.068949771689498P0.16529680365296803S0.4461187214611872,52.86741199911445,1090.4205479452053,-2809.4832140497174,-8374.534931506849,-9194.617184571549,2.1824049733570803,2.1824049733570234,-10.530853049398122,-10.530853049398184,-465.11627906976753,-465.1162790697674,0.04944038635813549,0.04944038635813548
C17.58083038869258H17.323763250883392N0.9531802120141343O10.245583038869258P0.1338339222614841S0.5132508833922261,49.95055397834336,878.172217314488,-2370.3424849561843,-6968.747195229683,-7663.936502778612,0.4849913648986046,0.4849913648986188,-13.233304913726636,-13.233304913726602,-465.1162790697674,-465.1162790697674,0.05896225444876892,0.05896225444876894
C14.064324817518248H13.980383211678832N1.032390510948905O8.578467153284672P0.14051094890510948S0.6218065693430657,46.49050244899283,653.8575273722627,-1877.0344919206673,-5413.975524635037,-5970.442752734794,-1.6566799534961518,-1.6566799534962087,-16.979979654000402,-16.97997965400046,-465.1162790697673,-465.11627906976736,0.07505914016351564,0.07505914016351563
C9.749881572714353H9.769303647560397N1.133112269066793O6.478919943154903P0.08574135480814779S0.7707247749881573,37.790234185210394,368.4503079109428,-1263.1580400197613,-3472.708479393653,-3854.434196810189,-7.757662549945522,-7.757662549945522,-27.034432881495388,-27.034432881495384,-465.1162790697674,-465.1162790697674,0.11365658974041251,0.11365658974041251
