,donor,h2o,hco3,nh4,hpo4,hs,h,e,acceptor,biom
C46.738643434972H72.47666459240821N0.9744866210329807O5.16925948973242P0.8089607965152458S0.864965774735532,-0.03430195286032764,-0.08161478679998352,0.6032267438620712,-0.16657320586230673,0.027748935107919058,0.029670015230774997,0.8549678351709922,0.0,-1.080872744939152,1.0
C38.22201492537314H60.94962686567164N0.9085820895522388O7.821517412935323P0.5373134328358209S0.6560945273631841,-0.04311101913115854,-0.05577569976970967,0.6477900166791887,-0.16083010015508545,0.023164129682413548,0.028284903721002654,0.8832332799201018,0.0,-1.071528641086883,1.0
C33.21878862793572H52.97033374536465N0.7855377008652658O9.080346106304079P0.39493201483312734S0.48516687268232384,-0.05080716905134276,-0.056730700773658604,0.6877526095003527,-0.16008905323593534,0.020065377641414105,0.024649955318482117,0.9126223733375994,0.0,-1.0627209793126813,1.0
C29.71570453134699H44.3618870266915N0.8230912476722533O9.37554314090627P0.37306021104903786S0.3954065797641217,-0.058691723066197785,-0.1707414857573277,0.7440659010707762,-0.1516913564334089,0.021895546593907432,0.023207093478068277,0.9627554441700695,0.0,-1.0493858111046848,1.0
C27.24103831891224H36.76946847960445N0.6891223733003708O10.15822002472188P0.3053152039555006S0.32941903584672433,-0.0669682156020496,-0.3150450511378293,0.8242837273646094,-0.15385070432862466,0.020446414405075712,0.022060605016002738,1.0410878655193896,0.0,-1.0296569599138345,1.0
C25.229102167182663H30.21424148606811N0.7089783281733746O10.910216718266254P0.2594427244582043S0.36470588235294116,-0.07628969586729795,-0.5108470066335844,0.9247205313393531,-0.1459122589671479,0.01979280654389959,0.027823300845720426,1.1380417042400186,0.0,-1.0050743491386156,1.0
C22.82196029776675H26.13771712158809N0.7803970223325062O11.100496277915633P0.19602977667493796S0.3641439205955335,-0.08754973240328126,-0.6139910074250994,0.9980565169877879,-0.13167644952647162,0.0171623544909658,0.03188070280442065,1.1959383783006103,0.0,-0.9884912414134971,1.0
C20.261300309597523H22.75294117647059N0.9578947368421052O10.68297213622291P0.15665634674922602S0.32321981424148605,-0.10169774715022555,-0.7064588948461994,1.0605285958202355,-0.10258426325609976,0.015931597541180845,0.03287072694267351,1.2278467811013676,0.0,-0.9762095418283641,1.0
C17.4252017380509H19.14587212911235N1.004965859714463O9.803227808814402P0.1719428926132837S0.41775294847920547,-0.12147508363056891,-0.819048837402488,1.116727838409268,-0.07792168814531904,0.020886777259880564,0.05074657435342823,1.2871696554277736,0.0,-0.9619169344697954,1.0
C13.166770379589297H14.827629122588675N1.2470441817050404O8.757311761045425P0.19912881144990666S0.49471064094586187,-0.17131990526739987,-1.0419869562208142,1.2557298541088449,0.013643491073969699,0.03411472911360794,0.08475378014161973,1.3950696014037103,0.0,-0.9306798506303816,1.0
