,delGcox0PerC,delGcox0,delGcox,delGcat0,delGcat,delGan0_O2,delGan0_HCO3,delGan_O2,delGan_HCO3,delGdis_O2,delGdis_HCO3,lambda_O2,lambda_HCO3
C50.69381688466112H69.33531510107015N0.4262782401902497O6.8680142687277055P0.6367419738406659S0.6242568370986921,91.92685446890356,4660.123127229488,-7767.105584313758,-27129.44598692033,-29212.60082194805,-76.91781973096263,18.360544928733674,-86.063703796428,16.530681474602293,-465.11627906976753,-537.9889587341715,0.012975653129403979,0.018982207150557835
C39.614192009540844H57.150268336314845N0.4394752534287418O8.803220035778175P0.3422778771615981S0.6350626118067979,88.11831318772293,3490.735778175311,-5998.231050328006,-20701.237745974948,-22318.328096569905,-64.32624772327009,17.17517660084218,-73.20023906353364,14.667720849006995,-465.11627906976753,-529.7764157059255,0.017560277737222945,0.02439448574280113
C33.68198090692124H47.26551312649165N0.47195704057279236O9.985680190930788P0.29832935560859186S0.5536992840095465,82.52203326778977,2779.5055489260144,-5021.584401719323,-16978.047852028638,-18350.186492739198,-45.82416086517511,15.313140093395646,-54.6152293054913,11.463090418318844,-465.1162790697674,-515.6493510003876,0.02237040206249147,0.02872518171013
C29.597728631201434H39.6246264196055N0.47638971906754335O10.726240286909743P0.2743574417214585S0.5301852958756724,76.72187531554819,2270.793245666467,-4344.0533677546155,-14351.732157800358,-15557.740728456562,-26.64802461780816,13.214632921447418,-35.44769014027388,7.764716830819175,-465.1162790697674,-499.3457041038436,0.02761767254184854,0.03259537678289692
C26.666666666666668H32.804204204204204N0.5453453453453454O11.57057057057057P0.2168168168168168S0.43543543543543545,69.10675675675674,1842.8468468468463,-3823.643281766943,-12259.1033033033,-13336.93060253751,-1.4713738738738016,10.158498850094077,-9.942903612647799,2.709474101969332,-465.1162790697676,-477.0605318578431,0.03412879537444077,0.03597304509243908
C23.684304399524375H26.33412604042806N0.6646848989298454O11.243757431629014P0.17954815695600476S0.38287752675386444,62.688056329542874,1484.7230083234242,-3326.6281893113664,-10385.45496432818,-11334.344313688269,7.271910428678524,7.27191042867851,-1.9852183751580217,-1.9852183751580466,-465.1162790697675,-465.1162790697675,0.040860860397129016,0.040860860397129016
C20.684460260972717H21.300711743772244N0.7313167259786477O10.519572953736654P0.17200474495848161S0.39679715302491103,57.72900154843149,1194.0932384341636,-2861.8107129039304,-8730.908985765123,-9557.295863026196,4.814030363036281,4.814030363036252,-6.156546283432503,-6.156546283432522,-465.1162790697676,-465.1162790697676,0.048021923707718225,0.048021923707718225
C17.553602811950793H18.005272407732864N0.8840070298769771O9.373755125951963P0.140597539543058S0.47510251903925016,54.38770524629556,954.7001757469246,-2399.6874042003656,-7215.463268892795,-7911.344407589126,3.0307940865892675,3.0307940865891823,-8.924449134082671,-8.924449134082773,-465.1162790697675,-465.1162790697673,0.05766299713839699,0.05766299713839697
C14.289192399049881H14.828384798099762N1.03562945368171O8.164489311163896P0.12410926365795724S0.5742280285035629,50.0573868594938,715.2796318289783,-1924.2364060311002,-5669.043942992873,-6231.151681533097,0.5488445733070364,0.5488445733070222,-12.886513998260334,-12.886513998260357,-465.1162790697675,-465.11627906976753,0.07257563098836997,0.07257563098836997
C10.056346381969158H10.386714116251483N1.2022538552787663O6.172597864768683P0.08125741399762752S0.67497034400949,41.85358301386022,420.894128113879,-1312.5524181523542,-3716.961951364175,-4103.9829193907135,-4.770004925588367,-4.770004925588367,-21.03348975934666,-21.03348975934667,-465.11627906976753,-465.11627906976753,0.10820775769124066,0.10820775769124066
