
================================
  PFLOTRAN Development Version
================================

 "grid_structured_type" set to default value.
 pflotran card:: NUMERICAL_METHODS
 pflotran card:: REGRESSION
 pflotran card:: SPECIFIED_VELOCITY
 pflotran card:: CHEMISTRY
 pflotran card:: GRID
 pflotran card:: FLUID_PROPERTY
 "FLUID_PROPERTY,diffusion_coefficient units" set to default value.
 pflotran card:: MATERIAL_PROPERTY
   Name :: soil1
 pflotran card:: OUTPUT
 pflotran card:: TIME
 pflotran card:: REGION
 all
 pflotran card:: REGION
 pt
 pflotran card:: OBSERVATION
 pflotran card:: TRANSPORT_CONDITION
 initial
 pflotran card:: CONSTRAINT
 initial
 Constraint Species: CH2O
 Constraint Species: O2(aq)
 Constraint Species: NH4+
 Constraint Species: C5H7O2N
 Constraint Species: HCO3-
 Constraint Species: H+
 Constraint Species: NO3-
 Constraint Species: N2(aq)
 Constraint Species: Fe+++
 Constraint Species: Fe++
 Constraint Species: SO4--
 Constraint Species: HS-
 Constraint Species: CH4(aq)
 pflotran card:: INITIAL_CONDITION
 "Initial Condition name" set to default value.
 pflotran card:: STRATA
 pflotran card:: END_SUBSURFACE

 ERROR: File: "database/hanford.dat" not found.

 Stopping!
