id	direction	compartment	gpr	name	enzyme	deltag	reference	equation	definition	ms id	bigg id	kegg id	kegg pathways	metacyc pathways
xrxn1_c0								(0.03270192472333833)  xcpd__0[c0] + (0.1966448667715854)  h2o[c0] + (0.18605988107810134)  nh4[c0] + (1.0677023755516162)  acceptor[c0] <=> (0.6577853837008852)  hco3[c0] + (0.02082268809672732)  hpo4[c0] + (0.020414400094830705)  hs[c0] + (0.9059050410672739)  h[c0] + (1.0)  biom[c0]						
xrxn2_c0								(0.04280375612898608)  xcpd__1[c0] + (0.14988916043105338)  h2o[c0] + (0.1811888084275118)  nh4[c0] + (1.059405856603414)  acceptor[c0] <=> (0.6956362140232152)  hco3[c0] + (0.014650778782372097)  hpo4[c0] + (0.02718306516241513)  hs[c0] + (0.9333096451778851)  h[c0] + (1.0)  biom[c0]						
xrxn3_c0								(0.05205986726239936)  xcpd__2[c0] + (0.21213830795948835)  h2o[c0] + (0.17542997911422561)  nh4[c0] + (1.0452854094183466)  acceptor[c0] <=> (0.7534794551489893)  hco3[c0] + (0.015530986653460428)  hpo4[c0] + (0.028825511228822556)  hs[c0] + (0.9887969187989559)  h[c0] + (1.0)  biom[c0]						
xrxn4_c0								(0.06140404893783376)  xcpd__3[c0] + (0.30256802436820884)  h2o[c0] + (0.1707477423768957)  nh4[c0] + (1.0292225776020816)  acceptor[c0] <=> (0.8174203773190163)  hco3[c0] + (0.01684665777792331)  hpo4[c0] + (0.03255552385406966)  hs[c0] + (1.0544169591058297)  h[c0] + (1.0)  biom[c0]						
xrxn5_c0								(0.07162879537444077)  xcpd__4[c0] + (0.4483172468399989)  h2o[c0] + (0.16093756984985452)  nh4[c0] + (1.0076608304861874)  acceptor[c0] <=> (0.9101012099850871)  hco3[c0] + (0.015530327405509378)  hpo4[c0] + (0.03118971570358532)  hs[c0] + (1.1332891503495475)  h[c0] + (1.0)  biom[c0]						
xrxn6_c0								(0.08428438792869287)  xcpd__5[c0] + (0.6254433499243579)  h2o[c0] + (0.14397744012825292)  nh4[c0] + (0.9880335812377127)  acceptor[c0] <=> (0.9962170998307598)  hco3[c0] + (0.015133106512761741)  hpo4[c0] + (0.0322705979941012)  hs[c0] + (1.202731350978638)  h[c0] + (1.0)  biom[c0]						
xrxn7_c0								(0.09995591710705815)  xcpd__6[c0] + (0.7780688190002094)  h2o[c0] + (0.12690056595907312)  nh4[c0] + (0.9709058863504418)  acceptor[c0] <=> (1.0675341952500275)  hco3[c0] + (0.01719289202909067)  hpo4[c0] + (0.03966222333607468)  hs[c0] + (1.2684827686033562)  h[c0] + (1.0)  biom[c0]						
xrxn8_c0								(0.1207516982999598)  xcpd__7[c0] + (0.8754972888380642)  h2o[c0] + (0.09325464983325171)  nh4[c0] + (0.9596987397198937)  acceptor[c0] <=> (1.1196273508260082)  hco3[c0] + (0.016977391676620008)  hpo4[c0] + (0.05736943604057844)  hs[c0] + (1.3042062200530777)  h[c0] + (1.0)  biom[c0]						
xrxn9_c0								(0.15331167043862337)  xcpd__8[c0] + (1.0087558125696305)  h2o[c0] + (0.04122591850061809)  nh4[c0] + (0.9438710773612176)  acceptor[c0] <=> (1.1906999559172176)  hco3[c0] + (0.01902739852830896)  hpo4[c0] + (0.08803585826255866)  hs[c0] + (1.3580165297370104)  h[c0] + (1.0)  biom[c0]						
xrxn10_c0								(0.23277588913408623)  xcpd__9[c0] + (1.3372592010523174)  h2o[c0] + (0.9120964106933965)  acceptor[c0] <=> (1.340874970503222)  hco3[c0] + (0.07985571012739784)  nh4[c0] + (0.018914766792034292)  hpo4[c0] + (0.1571168219659491)  hs[c0] + (1.455965615925842)  h[c0] + (1.0)  biom[c0]						
