<=> -0.049169147808924896 C37-DONOR + 0.8249305855199126 HCO3- + -0.1844746065916447 NH4+ + 0.02515178556343159 HPO4-- + 0.04887743895574077 HS- + 1.1085862021941595 H+ + -1.0224131353518486 O2(aq) + 1.0 BIOMASS 
<=> -0.05977698586763782 C33-DONOR + 0.9835197879588126 HCO3- + -0.17199672081233525 NH4+ + 0.024075750549843615 HPO4-- + 0.05097932171891846 HS- + 1.254647331589751 H+ + -0.9843420085322188 O2(aq) + 1.0 BIOMASS 
<=> -0.06812266480616969 C30-DONOR + 1.0614918336068873 HCO3- + -0.15535867312832918 NH4+ + 0.02080285832219861 HPO4-- + 0.04968579680816963 HS- + 1.308142020187784 H+ + -0.9675647679651631 O2(aq) + 1.0 BIOMASS 
<=> -0.07684589358273568 C27-DONOR + 1.1240606794862038 HCO3- + -0.13776989402025525 NH4+ + 0.020492238288729515 HPO4-- + 0.03977905079576906 HS- + 1.3425941008796864 H+ + -0.9549997705072008 O2(aq) + 1.0 BIOMASS 
<=> -0.08582423960266425 C25-DONOR + 1.168764026110238 HCO3- + -0.12377378979373255 NH4+ + 0.017019761429657086 HPO4-- + 0.047432122017077125 HS- + 1.3740094607803608 H+ + -0.9453019657689629 O2(aq) + 1.0 BIOMASS 
<=> -0.09601624177276968 C22-DONOR + 1.190955229734155 HCO3- + -0.11660127717813917 NH4+ + 0.02055732355904171 HPO4-- + 0.05397836156071731 HS- + 1.4026495155910927 H+ + -0.9391057009560796 O2(aq) + 1.0 BIOMASS 
<=> -0.10908712798639458 C20-DONOR + 1.2276564456060992 HCO3- + -0.10464039086833804 NH4+ + 0.01812565596353044 HPO4-- + 0.06350643431339893 HS- + 1.432054582714898 H+ + -0.9307610215440397 O2(aq) + 1.0 BIOMASS 
<=> -0.12737871411396978 C17-DONOR + 1.2475476362003421 HCO3- + -0.08243082747495548 NH4+ + 0.015331950187134982 HPO4-- + 0.06932076056173826 HS- + 1.4299631246113063 H+ + -0.9281485588600437 O2(aq) + 1.0 BIOMASS 
<=> -0.15844862068921522 C14-DONOR + 1.279186148733962 HCO3- + -0.052410492170891915 NH4+ + 0.024078902428933187 HPO4-- + 0.09763758867261535 HS- + 1.4773920344353333 H+ + -0.9186155209348987 O2(aq) + 1.0 BIOMASS 
<=> -0.2367576320615824 C10-DONOR + 1.3894703618460085 HCO3- + 0.022262266833322233 NH4+ + 0.035181459356089725 HPO4-- + 0.1683576273907298 HS- + 1.6059286411155929 H+ + -0.8892835761370755 O2(aq) + 1.0 BIOMASS 
