,delGcox0PerC,delGcox0,delGcox,delGcat0,delGcat,delGan0_O2,delGan0_HCO3,delGan_O2,delGan_HCO3,delGdis_O2,delGdis_HCO3,lambda_O2,lambda_HCO3
C40.876318312559924H52.51773729626078N0.3811121764141898O9.37248322147651P0.5805369127516778S0.9319271332694151,83.77436318431297,3424.3875359539784,-6150.196243644501,-20773.734899328858,-22474.441394062862,-49.96453933480332,15.742991266800217,-59.62370180037731,11.463180400186467,-465.1162790697675,-515.6497476700486,0.018042387357245296,0.02345388340595126
C34.3624031007752H40.144864341085274N0.4893410852713178O12.020833333333334P0.4055232558139535S0.8585271317829457,72.69591675596415,2498.006395348838,-5007.060679379316,-16204.712790697675,-17624.063250094994,-13.337640573007782,11.644797039523922,-22.695978328642006,4.474639645998134,-465.1162790697674,-484.84196200894024,0.02510319524294381,0.02776411969880448
C31.596610169491527H34.57094430992736N0.6523002421307506O13.335108958837772P0.3167070217917676S0.6435835351089588,65.92862660352199,2083.1211138014523,-4499.87414562944,-14193.482590799027,-15480.199987054593,8.767961252254707,8.767961252254665,-0.032614734362793385,-0.0326147343628449,-465.11627906976764,-465.1162790697677,0.030043776225393313,0.030043776225393313
C28.924736337488014H31.374880153403645N0.7396931927133269O14.187440076701822P0.24592521572387344S0.5618408437200384,61.17384192120922,1769.4372483221478,-4053.8825620442103,-12538.556303930965,-13706.168394643562,6.54391902893947,6.543919028939385,-3.5722743879184016,-3.5722743879184673,-465.1162790697675,-465.1162790697675,0.033674181681747226,0.033674181681747226
C26.16121270452358H27.770452358036575N0.8310875842155919O13.853224254090472P0.22810394610202117S0.5076997112608277,57.78987362728324,1511.8531761308946,-3625.013602325898,-11047.910731472568,-12097.929862975396,4.845526182146557,4.8455261821465,-6.299620357972172,-6.299620357972239,-465.1162790697675,-465.1162790697675,0.03792522058802486,0.037925220588024854
C23.613899613899616H24.329633204633204N0.8851351351351351O13.415057915057915P0.20222007722007723S0.4985521235521235,54.09416693917592,1277.3742277992276,-3232.9608185139223,-9683.65041023166,-10627.354898861937,2.868851279058447,2.8688512790584326,-9.562100797809306,-9.562100797809341,-465.11627906976736,-465.1162790697674,0.042866186610625245,0.04286618661062524
C20.647113594040967H21.021880819366853N0.8957169459962756O12.135474860335195P0.1634078212290503S0.4860335195530726,51.89201803833146,1071.4203910614524,-2804.606658185121,-8316.699301675975,-9137.906598111837,1.6252282187979432,1.6252282187978864,-11.51531489505479,-11.51531489505482,-465.1162790697674,-465.1162790697675,0.04963948354084076,0.04963948354084075
C17.584114234716644H17.157072735385988N0.9669790272199911O10.2904953145917P0.12226684515841142S0.5082552431950023,49.3920925747348,868.5161981258364,-2365.1725033567163,-6937.582396251673,-7631.228473763465,0.14904912236382017,0.1490491223638486,-13.706145799144922,-13.706145799144894,-465.1162790697673,-465.1162790697675,0.059153009875486294,0.05915300987548631
C14.020557332115121H13.75788031064413N1.0470534490634993O8.522613065326633P0.1269986295111923S0.5952489721333942,46.103395132123424,646.3952946550937,-1866.2744570505245,-5379.183554134307,-5931.177697534691,-1.9055243961443153,-1.9055243961442443,-17.177665435356108,-17.177665435356058,-465.11627906976764,-465.11627906976764,0.0755227100716605,0.07552271007166052
C9.702097235462345H9.591515729265968N1.1377502383222116O6.489037178265014P0.07721639656816015S0.7816968541468065,36.867133382461304,357.68851286939935,-1252.9089864299167,-3426.0788369876077,-3805.4684247255527,-8.473760126151774,-8.473760126151745,-28.20924235586965,-28.20924235586961,-465.11627906976724,-465.11627906976736,0.11481031714128785,0.11481031714128787
