,donor,h2o,hco3,nh4,hpo4,hs,h,e,acceptor,biom
C49.24483406386975H71.05134627426425N0.4577332498434565O6.485911083281152P0.6311834690043833S0.6217908578584846,-0.033226193339432705,-0.1307660728129425,0.636218377574418,-0.18479126654281447,0.02097182397379347,0.020659743259897733,0.8836130353247189,0.0,-1.0731371100850087,1.0
C39.26151930261519H59.752179327521795N0.4452054794520548O8.071606475716065P0.3767123287671233S0.6083437110834371,-0.0423517690800197,-0.07546849097929903,0.6627947992350947,-0.18114476034108712,0.01595443355754167,0.025764432373087946,0.9016128590643518,0.0,-1.0674434136959166,1.0
C34.205351586807716H50.33727442439328N0.43497199751088983O9.299937772246421P0.27940261356565027S0.5998755444928439,-0.050253567786370745,-0.13812283414304063,0.7189409546242858,-0.17814110523791343,0.014040978180510557,0.030145886338557193,0.9553099025617763,0.0,-1.0537544446026217,1.0
C29.90556597873671H41.69668542839275N0.45528455284552843O9.92057535959975P0.2883051907442151S0.557848655409631,-0.05948355035604529,-0.23828565166292864,0.7788892398222199,-0.17291805837448346,0.017149416331542763,0.03318281858511094,1.0192889494448993,0.0,-1.038434344583104,1.0
C26.713216957605987H34.005610972568576N0.4993765586034913O10.925187032418952P0.26059850374064836S0.49875311720698257,-0.07012358754359654,-0.3958415134935354,0.8732266078977708,-0.1649819241755481,0.018274101990787626,0.03497435787710551,1.109731093931999,0.0,-1.015410704432466,1.0
C23.518450184501845H26.785362853628538N0.5522755227552275O10.908364083640837P0.22693726937269373S0.45079950799507995,-0.08369387861889004,-0.5830170318964092,0.9683503150461094,-0.15377791943433997,0.018993260276980582,0.03772915930359557,1.1978439143380037,0.0,-0.9925218274014729,1.0
C20.617139334155365H21.05363748458693N0.7151664611590629O10.297780517879161P0.20776818742293465S0.4469790382244143,-0.0999109421236666,-0.7911084388688898,1.0598778147703665,-0.12854704509034942,0.020758315348751936,0.04465809681853161,1.2745995873767517,0.0,-0.9713486567565855,1.0
C17.60368098159509H18.2N0.8717791411042944O9.569938650306748P0.16257668711656442S0.5159509202453988,-0.1205242583423677,-0.874081899078121,1.1216705944023917,-0.09492946558005862,0.019594434638483094,0.062184602003638796,1.317973531263056,0.0,-0.9579489322364032,1.0
C14.39913097454997H15.182495344506517N1.0682805710738672O8.387957790192427P0.13904407200496585S0.5238981998758535,-0.1521359847999579,-0.99094408449322,1.1906259710767373,-0.037476083277015806,0.02115360682507174,0.07970376857303817,1.3501130365769325,0.0,-0.9447190185829373,1.0
C10.257142857142858H10.46335403726708N1.2347826086956522O6.326086956521739P0.09192546583850932S0.6546583850931676,-0.22880750601465688,-1.354996206071426,1.346911275978909,0.08252752916592412,0.021033236577744856,0.1497907523847505,1.4562409723532228,0.0,-0.9112071944113451,1.0
