id	direction	compartment	gpr	name	enzyme	deltag	reference	equation	definition	ms id	bigg id	kegg id	kegg pathways	metacyc pathways
xrxn1_c0								(0.04488067692286109)  xcpd__0[c0] + (0.39012360332436613)  h2o[c0] + (0.18336606936952285)  nh4[c0] + (1.036725407755688)  acceptor[c0] <=> (0.768836477387692)  hco3[c0] + (0.027532843690217537)  hpo4[c0] + (0.04166811521311228)  hs[c0] + (1.0489363493507617)  h[c0] + (1.0)  biom[c0]						
xrxn2_c0								(0.056571138833712994)  xcpd__1[c0] + (0.6698424224719193)  h2o[c0] + (0.17360413458448176)  nh4[c0] + (0.9989940505304095)  acceptor[c0] <=> (0.9262082833958364)  hco3[c0] + (0.022736438619275955)  hpo4[c0] + (0.048142459081712274)  hs[c0] + (1.1934277543005796)  h[c0] + (1.0)  biom[c0]						
xrxn3_c0								(0.06400522459129394)  xcpd__2[c0] + (0.7532730862541828)  h2o[c0] + (0.15883453449970464)  nh4[c0] + (0.9836312635471203)  acceptor[c0] <=> (0.9965587637246365)  hco3[c0] + (0.02105435019450459)  hpo4[c0] + (0.04631957042791009)  hs[c0] + (1.2438215690412577)  h[c0] + (1.0)  biom[c0]						
xrxn4_c0								(0.07210043314000308)  xcpd__3[c0] + (0.7713582155076255)  h2o[c0] + (0.1441023357531668)  nh4[c0] + (0.9712104398658122)  acceptor[c0] <=> (1.0532949437696533)  hco3[c0] + (0.021301542321090487)  hpo4[c0] + (0.04475590008952523)  hs[c0] + (1.2847562642545274)  h[c0] + (1.0)  biom[c0]						
xrxn5_c0								(0.08115695870498785)  xcpd__4[c0] + (0.8430569257949386)  h2o[c0] + (0.1306073903509873)  nh4[c0] + (0.9608298872831693)  acceptor[c0] <=> (1.100916668912892)  hco3[c0] + (0.022079466706504045)  hpo4[c0] + (0.0430080731792714)  hs[c0] + (1.3186910658561604)  h[c0] + (1.0)  biom[c0]						
xrxn6_c0								(0.09163325944566744)  xcpd__5[c0] + (0.8991910980026516)  h2o[c0] + (0.11688853793224731)  nh4[c0] + (0.9518085042851064)  acceptor[c0] <=> (1.1417479072943462)  hco3[c0] + (0.020825740783106235)  hpo4[c0] + (0.048641270426749275)  hs[c0] + (1.3489291972195532)  h[c0] + (1.0)  biom[c0]						
xrxn7_c0								(0.10490310886737365)  xcpd__6[c0] + (0.9574861718113186)  h2o[c0] + (0.10618634803193286)  nh4[c0] + (0.9428174501395996)  acceptor[c0] <=> (1.1821002891104644)  hco3[c0] + (0.020759883768843985)  hpo4[c0] + (0.04971860770968711)  hs[c0] + (1.3795250123897704)  h[c0] + (1.0)  biom[c0]						
xrxn8_c0								(0.12370844664207267)  xcpd__7[c0] + (1.0423475774693958)  h2o[c0] + (0.0807076638778344)  nh4[c0] + (0.9360453401800343)  acceptor[c0] <=> (1.218608043533583)  hco3[c0] + (0.015370358692663642)  hpo4[c0] + (0.06429168691968634)  hs[c0] + (1.394348111716429)  h[c0] + (1.0)  biom[c0]						
xrxn9_c0								(0.15622932010653962)  xcpd__8[c0] + (1.1389408719377232)  h2o[c0] + (0.04369607181318029)  nh4[c0] + (0.9252489254157767)  acceptor[c0] <=> (1.2593564951224159)  hco3[c0] + (0.024993706893835135)  hpo4[c0] + (0.08841057513192428)  hs[c0] + (1.4414505558551887)  h[c0] + (1.0)  biom[c0]						
xrxn10_c0								(0.24129605783157615)  xcpd__9[c0] + (1.4107803905800091)  h2o[c0] + (0.8946467048343743)  acceptor[c0] <=> (1.406226734841392)  hco3[c0] + (0.07870629935585151)  nh4[c0] + (0.029429389999096625)  hpo4[c0] + (0.14639874516499762)  hs[c0] + (1.532777960648731)  h[c0] + (1.0)  biom[c0]						
