,donor,h2o,hco3,nh4,hpo4,hs,h,e,acceptor,biom
C47.41695621959694H73.95969423210563N0.9075747046560111O5.069492703266157P0.8241834607366226S0.8554551772063933,-0.03368617254523812,-0.06790772538861575,0.5972957687833444,-0.1694272819012641,0.027763586267305358,0.028817010704091817,0.8510672339233099,0.0,-1.0821310600557945,1.0
C39.743961352657H63.65769496204279N0.9151138716356108O7.974465148378192P0.5010351966873706S0.6473429951690821,-0.04138949598051819,-0.04231631832872562,0.6449825286556675,-0.16212389808822147,0.02073759425939007,0.026793200296567336,0.8753748155592356,0.0,-1.072761275735128,1.0
C34.35798203178991H56.04008293020041N0.7857636489288182O9.049758120248791P0.41257774706288874S0.5017277125086386,-0.04863882576726353,-0.02010231129181808,0.6711319017590003,-0.161781378785502,0.020067297154841967,0.024403446791315356,0.8974513216455019,0.0,-1.066696487078946,1.0
C30.520500347463518H48.002084781097984N0.8207088255733148O8.98679638637943P0.35997220291869353S0.44892286309937457,-0.05600595744357189,-0.08945859681053436,0.7093298436165628,-0.15403541644137708,0.020160587877533172,0.02514235476619002,0.9288287905791957,0.0,-1.0579295747898376,1.0
C27.510034602076125H40.65259515570934N0.7771626297577855O9.51349480968858P0.29896193771626295S0.356401384083045,-0.06436022387726942,-0.18917442314776334,0.7705519858610477,-0.1499816391597415,0.01924125724220096,0.02293807286975346,0.9819542123749426,0.0,-1.043577953798693,1.0
C25.67844767844768H33.06791406791407N0.6763686763686764O10.638253638253639P0.24047124047124047S0.3090783090783091,-0.07313637082560184,-0.39198124083219216,0.878028471636764,-0.15053284967027902,0.017587193815997115,0.02260486582690119,1.0863405747659396,0.0,-1.0172048431589809,1.0
C23.295755045233125H27.57759220598469N0.6645789839944328O11.197633959638136P0.18093249826026445S0.3082811412665275,-0.08462104243170138,-0.5378979421083563,0.9713110761611935,-0.14376263359619013,0.015310696612555571,0.026087071536008147,1.1717821745185013,0.0,-0.9948613071961241,1.0
C20.735457063711912H23.222991689750693N0.896814404432133O10.887811634349031P0.15443213296398892S0.26662049861495846,-0.09900302370705241,-0.685810863191542,1.052872947255238,-0.11121266225717946,0.015289248120964466,0.02639623554516287,1.2210603412995102,0.0,-0.9780193488523256,1.0
C17.685236768802227H19.450557103064067N0.9519498607242339O9.837743732590528P0.1671309192200557S0.37952646239554316,-0.1189833903868556,-0.791988199237675,1.104249430546368,-0.08673377809273568,0.019885803407273916,0.04515734523735118,1.275912160691002,0.0,-0.9648876014849316,1.0
C13.252433936022253H14.623783031988873N1.1543810848400555O8.679415855354659P0.19680111265646733S0.5006954102920723,-0.16939085657832778,-1.0344036582435987,1.2448411361705094,-0.004458399221123732,0.033336309048446984,0.08481322443421141,1.4007853779227375,0.0,-0.9316256500618361,1.0
