<=> -0.031373563689891526 C52-DONOR + 0.6444861950486405 HCO3- + -0.1860658963651655 NH4+ + 0.02010901974874956 HPO4-- + 0.02086996900723202 HS- + 0.8916400999185387 H+ + -1.0711086342858291 O2(aq) + 1.0 BIOMASS 
<=> -0.03939112875127321 C42-DONOR + 0.670539793416238 HCO3- + -0.1790094065831255 NH4+ + 0.015286109664673184 HPO4-- + 0.028617758322324743 HS- + 0.9087391776510344 H+ + -1.0655848656492597 O2(aq) + 1.0 BIOMASS 
<=> -0.04609089995132638 C37-DONOR + 0.7094772274758301 HCO3- + -0.1709046540291102 NH4+ + 0.013849608062918753 HPO4-- + 0.03000748413632396 HS- + 0.9380885817671022 H+ + -1.0569274717653174 O2(aq) + 1.0 BIOMASS 
<=> -0.053529892270752666 C32-DONOR + 0.7650102009033902 HCO3- + -0.1690630598627065 NH4+ + 0.014719650632405209 HPO4-- + 0.03151460084525127 HS- + 0.9950271628761576 H+ + -1.042982416556669 O2(aq) + 1.0 BIOMASS 
<=> -0.0625765428428368 C29-DONOR + 0.8286767654782922 HCO3- + -0.16459619614488197 NH4+ + 0.017407935325151905 HPO4-- + 0.03504593146957895 HS- + 1.0631347637430553 H+ + -1.0266951098135149 O2(aq) + 1.0 BIOMASS 
<=> -0.07391441496865546 C25-DONOR + 0.9160128859475343 HCO3- + -0.15315452628255333 NH4+ + 0.017885907966430636 HPO4-- + 0.03712226200415217 HS- + 1.1420614901671016 H+ + -1.0058890890205765 O2(aq) + 1.0 BIOMASS 
<=> -0.08870041823835906 C22-DONOR + 1.0070601848021004 HCO3- + -0.1377035924792294 NH4+ + 0.01954536459579226 HPO4-- + 0.04172046915538202 HS- + 1.2255749756282954 H+ + -0.9840683249708316 O2(aq) + 1.0 BIOMASS 
<=> -0.10831700207911138 C19-DONOR + 1.089845470846422 HCO3- + -0.10914652731660525 NH4+ + 0.02005071893582277 HPO4-- + 0.058686082734741477 HS- + 1.297779518769413 H+ + -0.964622934967836 O2(aq) + 1.0 BIOMASS 
<=> -0.13957787974915498 C15-DONOR + 1.1666790261502704 HCO3- + -0.06462458551828247 NH4+ + 0.02039596476462963 HPO4-- + 0.08567425858549094 HS- + 1.3577697997833056 H+ + -0.9473196758725423 O2(aq) + 1.0 BIOMASS 
<=> -0.21793866996248312 C10-DONOR + 1.3224199543457662 HCO3- + 0.060012451966548926 NH4+ + 0.024645730044222644 HPO4-- + 0.1581727746052432 HS- + 1.4698717370729075 H+ + -0.9132524491834432 O2(aq) + 1.0 BIOMASS 
