  PRIMARY_SPECIES
    HCO3-
    NH4+
    HPO4--
    HS-
    H+
    O2(aq)
    BIOMASS
    C49-DONOR
    C39-DONOR
    C34-DONOR
    C29-DONOR
    C26-DONOR
    C23-DONOR
    C20-DONOR
    C17-DONOR
    C14-DONOR
    C10-DONOR
  /
