,donor,h2o,hco3,nh4,hpo4,hs,h,e,acceptor,biom
C44.032805429864254H58.64705882352941N0.3433257918552036O7.252828054298643P0.3399321266968326S0.6945701357466063,-0.03844062272332005,-0.23153072829273308,0.6926484609787705,-0.186802342764109,0.013067202633888775,0.02669970854312049,0.9322849175537743,0.0,-1.0599401191333637,1.0
C34.54900849858357H46.10991501416431N0.36373937677053825O11.66742209631728P0.2413597733711048S0.9229461756373938,-0.05225682299324498,-0.2963036618442689,0.8054214217025981,-0.18099213577242876,0.012612694954743547,0.04823023493257568,1.0598691823170858,0.0,-1.0303544859038865,1.0
C31.64525298465037H37.43206367254122N0.48834565093803295O13.24332006822058P0.24218305855599773S0.7447413303013075,-0.060513172696776446,-0.4937647678580165,0.914954658893328,-0.1704486552890671,0.014655265246632613,0.045066660734950054,1.1597805054106107,0.0,-1.00416247772079,1.0
C28.915168539325844H32.42584269662921N0.6134831460674157O13.910112359550562P0.24269662921348314S0.5561797752808989,-0.0687631583459273,-0.6000017510913894,0.9882983128688383,-0.15781496128440864,0.016688586744629547,0.03824467795644271,1.2177351255989477,0.0,-0.9875721378521137,1.0
C26.546368715083798H27.70949720670391N0.7268156424581006O14.08268156424581P0.24636871508379887S0.464804469273743,-0.0777922656563611,-0.7370274002052369,1.065102167295512,-0.14345936445870067,0.01916558053321522,0.03615819275200695,1.2830508855726508,0.0,-0.9697088592072054,1.0
C24.05733558178752H23.649241146711635N0.7790893760539629O13.246767847105115P0.20798201236649802S0.448566610455312,-0.08805966450051231,-0.847091167749244,1.1184809001084461,-0.13139365092877459,0.018314826231135214,0.03950062522282677,1.326004828722319,0.0,-0.9575524525841917,1.0
C21.399328859060404H20.477628635346758N0.8355704697986577O12.296979865771812P0.20917225950782997S0.46868008948545864,-0.10101248828296008,-0.9329919804454385,1.1615994556390483,-0.11559694770987566,0.02112901041265496,0.04734254204760657,1.3667969662218404,0.0,-0.9470869467576283,1.0
C18.671900378992962H17.395235517054683N0.8949648077964266O10.887384948565241P0.1277747698971305S0.5138061721710883,-0.11825363691070859,-1.021668655983911,1.2080201278503557,-0.0941671565709793,0.015109831245764607,0.060759448526400896,1.3931663954392637,0.0,-0.9376790929677334,1.0
C15.288503253796096H14.273318872017354N1.0070498915401302O8.995119305856832P0.11984815618221258S0.544468546637744,-0.14688418549996307,-1.1256360113236412,1.2456393479473744,-0.052080296923301836,0.017603798804496657,0.07997381900323368,1.4129010614829047,0.0,-0.930228227510348,1.0
C10.834444444444445H10.623888888888889N1.1394444444444445O7.056111111111111P0.12111111111111111S0.5655555555555556,-0.21788674347036546,-1.3384941165118822,1.360681817310593,0.04826983936539975,0.026388505598077594,0.12322705825157335,1.488416047392921,-1.1102230246251565e-16,-0.9058361431235725,1.0
