id	name	formula	charge	inchikey	smiles	deltag	kegg id	ms id
xcpd__0_c0		C46.738643434972H72.47666459240821N0.9744866210329807O5.16925948973242P0.8089607965152458S0.864965774735532						
xcpd__1_c0		C38.22201492537314H60.94962686567164N0.9085820895522388O7.821517412935323P0.5373134328358209S0.6560945273631841						
xcpd__2_c0		C33.21878862793572H52.97033374536465N0.7855377008652658O9.080346106304079P0.39493201483312734S0.48516687268232384						
xcpd__3_c0		C29.71570453134699H44.3618870266915N0.8230912476722533O9.37554314090627P0.37306021104903786S0.3954065797641217						
xcpd__4_c0		C27.24103831891224H36.76946847960445N0.6891223733003708O10.15822002472188P0.3053152039555006S0.32941903584672433						
xcpd__5_c0		C25.229102167182663H30.21424148606811N0.7089783281733746O10.910216718266254P0.2594427244582043S0.36470588235294116						
xcpd__6_c0		C22.82196029776675H26.13771712158809N0.7803970223325062O11.100496277915633P0.19602977667493796S0.3641439205955335						
xcpd__7_c0		C20.261300309597523H22.75294117647059N0.9578947368421052O10.68297213622291P0.15665634674922602S0.32321981424148605						
xcpd__8_c0		C17.4252017380509H19.14587212911235N1.004965859714463O9.803227808814402P0.1719428926132837S0.41775294847920547						
xcpd__9_c0		C13.166770379589297H14.827629122588675N1.2470441817050404O8.757311761045425P0.19912881144990666S0.49471064094586187						
h2o_c0		H2O						
hco3_c0		HCO3						
nh4_c0		NH4						
hpo4_c0		HPO4						
hs_c0		HS						
h_c0		H						
e_c0		e-						
acceptor_c0		O2						
biom_c0		CH1.8N0.2O0.5						
