<=> -0.04250643014000084 C40-DONOR + 0.7375063687332656 HCO3- + -0.18380028189774658 NH4+ + 0.024676551725570955 HPO4-- + 0.03961289558588765 HS- + 1.0102726496680408 H+ + -1.0452858032481913 O2(aq) + 1.0 BIOMASS 
<=> -0.05420476875825597 C34-DONOR + 0.8626061140554975 HCO3- + -0.1734753796289542 NH4+ + 0.02198129430749043 HPO4-- + 0.046536264650983324 HS- + 1.1265803469504148 H+ + -1.0151386608886714 O2(aq) + 1.0 BIOMASS 
<=> -0.06171162348362154 C31-DONOR + 0.9498781101384286 HCO3- + -0.15974549305935196 NH4+ + 0.019544504483432684 HPO4-- + 0.039716584798902194 HS- + 1.1884291969635496 H+ + -0.9961512312292212 O2(aq) + 1.0 BIOMASS 
<=> -0.06969914899233365 C28-DONOR + 1.0160295075505443 HCO3- + -0.14844401395245888 NH4+ + 0.01714077825171005 HPO4-- + 0.0391598286764214 HS- + 1.2379149066828443 H+ + -0.9814829382355659 O2(aq) + 1.0 BIOMASS 
<=> -0.07896460666183143 C26-DONOR + 1.0658098710092117 HCO3- + -0.1343734958108841 NH4+ + 0.0180121383819577 HPO4-- + 0.04009030800203665 HS- + 1.276297951586046 H+ + -0.9703235215509767 O2(aq) + 1.0 BIOMASS 
<=> -0.08989144355709608 C23-DONOR + 1.1226875243057899 HCO3- + -0.1204339249595974 NH4+ + 0.018177854657540182 HPO4-- + 0.044815570074556096 HS- + 1.3242927286550241 H+ + -0.9571345031116175 O2(aq) + 1.0 BIOMASS 
<=> -0.10454344907067352 C20-DONOR + 1.1585204684750328 HCO3- + -0.10635866107449915 NH4+ + 0.01708321723640894 HPO4-- + 0.05081162049803685 HS- + 1.3498571845203862 H+ + -0.949320458274766 O2(aq) + 1.0 BIOMASS 
<=> -0.12518407440383583 C17-DONOR + 1.201251064684317 HCO3- + -0.07894962550954385 NH4+ + 0.01530586184143285 HPO4-- + 0.06362546218026283 HS- + 1.3744378760569875 H+ + -0.9406278819356946 O2(aq) + 1.0 BIOMASS 
<=> -0.16106552893354592 C14-DONOR + 1.2582284826402277 HCO3- + -0.031355782404893895 NH4+ + 0.020455101436055625 HPO4-- + 0.09587409054381468 HS- + 1.426368558461046 H+ + -0.9270076276452472 O2(aq) + 1.0 BIOMASS 
<=> -0.2510356588022859 C9-DONOR + 1.4355723712681265 HCO3- + 0.08561588062967418 NH4+ + 0.01938406898282665 HPO4-- + 0.19623378476441797 HS- + 1.5849584133685237 H+ + -0.8849369106252458 O2(aq) + 1.0 BIOMASS 
