,donor,h2o,hco3,nh4,hpo4,hs,h,e,acceptor,biom
C39.411983032873806H48.42311770943797N0.3706256627783669O10.0949098621421P0.6134676564156946S0.9284199363732768,-0.04488067692286109,-0.39012360332436613,0.768836477387692,-0.18336606936952285,0.027532843690217537,0.04166811521311228,1.0489363493507617,0.0,-1.036725407755688,1.0
C34.04931071049841H34.583244962884415N0.46659597030752914O12.404559915164368P0.4019088016967126S0.8510074231177094,-0.056571138833712994,-0.6698424224719193,0.9262082833958364,-0.17360413458448176,0.022736438619275955,0.048142459081712274,1.1934277543005796,0.0,-0.9989940505304095,1.0
C31.193684210526317H30.71421052631579N0.6431578947368422O13.33263157894737P0.32894736842105265S0.7236842105263158,-0.06400522459129394,-0.7532730862541828,0.9965587637246365,-0.15883453449970464,0.02105435019450459,0.04631957042791009,1.2438215690412577,0.0,-0.9836312635471203,1.0
C28.47826086956522H28.917757988475643N0.7752750130958617O14.303823991618648P0.29544264012572025S0.6207438449449973,-0.07210043314000308,-0.7713582155076255,1.0532949437696533,-0.1441023357531668,0.021301542321090487,0.04475590008952523,1.2847562642545274,0.0,-0.9712104398658122,1.0
C25.887079831932773H25.581932773109244N0.8550420168067226O13.878676470588236P0.27205882352941174S0.529936974789916,-0.08115695870498785,-0.8430569257949386,1.100916668912892,-0.1306073903509873,0.022079466706504045,0.0430080731792714,1.3186910658561604,0.0,-0.9608298872831693,1.0
C23.3730407523511H22.854231974921632N0.9070010449320794O13.158307210031348P0.22727272727272727S0.5308254963427377,-0.09163325944566744,-0.8991910980026516,1.1417479072943462,-0.11688853793224731,0.020825740783106235,0.048641270426749275,1.3489291972195532,0.0,-0.9518085042851064,1.0
C20.801102204408817H19.945891783567134N0.8942885771543087O12.261022044088177P0.19789579158316634S0.47394789579158314,-0.10490310886737365,-0.9574861718113186,1.1821002891104644,-0.10618634803193286,0.020759883768843985,0.04971860770968711,1.3795250123897704,0.0,-0.9428174501395996,1.0
C17.93416782568382H16.854891052387575N0.9643022716736208O10.531757070004636P0.12424663885025498S0.5197032916087158,-0.12370844664207267,-1.0423475774693958,1.218608043533583,-0.0807076638778344,0.015370358692663642,0.06429168691968634,1.394348111716429,0.0,-0.9360453401800343,1.0
C14.461795606494746H13.835721107927412N1.0004775549188156O8.888252148997134P0.15998089780324737S0.5659025787965616,-0.15622932010653962,-1.1389408719377232,1.2593564951224159,-0.04369607181318029,0.024993706893835135,0.08841057513192428,1.4414505558551887,0.0,-0.9252489254157767,1.0
C9.972093023255814H9.97984496124031N1.1550387596899225O6.78139534883721P0.12196382428940568S0.60671834625323,-0.24129605783157615,-1.4107803905800091,1.406226734841392,0.07870629935585151,0.029429389999096625,0.14639874516499762,1.532777960648731,0.0,-0.8946467048343743,1.0
