id	name	formula	charge	inchikey	smiles	deltag	kegg id	ms id
xcpd__0_c0		C48.600431189363995H66.40891124685591N0.383399209486166O7.342436219906576P0.6464247215235358S0.6812791951131872						
xcpd__1_c0		C37.86345526982977H52.19159724737414N0.4940239043824701O9.51394422310757P0.4031148134733792S0.784136182542557						
xcpd__2_c0		C33.776695526695526H42.52200577200577N0.5422077922077922O11.207070707070708P0.4033189033189033S0.7557720057720058						
xcpd__3_c0		C31.018070112034696H36.667871340802314N0.6595590892663534O12.438380917961691P0.31622696060715577S0.6588362847849657						
xcpd__4_c0		C28.362526920315865H32.657932519741564N0.7954055994256999O13.325197415649678P0.2760229720028715S0.5689160086145011						
xcpd__5_c0		C25.485478666188598H28.33201864467551N0.842954463965579O13.053424166367874P0.2377196127644317S0.5256364288275368						
xcpd__6_c0		C22.40891404315529H24.0484612663601N0.8528475415634948O12.34064379200566P0.20940926777502653S0.49451715599575524						
xcpd__7_c0		C19.068733153638814H19.773247978436657N0.8931940700808625O11.022574123989218P0.1597035040431267S0.4919137466307278						
xcpd__8_c0		C15.21504637581587H15.310889728615596N1.0192373754723463O9.050498110614908P0.1556166265888011S0.621779457231192						
xcpd__9_c0		C10.283380681818182H10.437144886363637N1.1448863636363635O6.7741477272727275P0.10830965909090909S0.7830255681818182						
h2o_c0		H2O						
hco3_c0		HCO3						
nh4_c0		NH4						
hpo4_c0		HPO4						
hs_c0		HS						
h_c0		H						
e_c0		e-						
acceptor_c0		O2						
biom_c0		CH1.8N0.2O0.5						
