<=> -0.033976264812130036 C47-DONOR + 0.5994281237496296 HCO3- + -0.16874910402306756 NH4+ + 0.026231675038776867 HPO4-- + 0.026981151468456206 HS- + 0.8476217293187035 H+ + -1.0821923082168399 O2(aq) + 1.0 BIOMASS 
<=> -0.042184985564909384 C38-DONOR + 0.639646018936898 HCO3- + -0.1595586605051069 NH4+ + 0.023623591916349256 HPO4-- + 0.027195254027511585 HS- + 0.8736471173022117 H+ + -1.0737046666323786 O2(aq) + 1.0 BIOMASS 
<=> -0.04939044241346963 C33-DONOR + 0.6701932551784755 HCO3- + -0.16173145601141561 NH4+ + 0.020795975753039844 HPO4-- + 0.02425100337023792 HS- + 0.8977676660662078 H+ + -1.0667967059824839 O2(aq) + 1.0 BIOMASS 
<=> -0.05678774830470971 C30-DONOR + 0.7137406683395296 HCO3- + -0.1542669333652738 NH4+ + 0.021882212346748142 HPO4-- + 0.022260797335446208 HS- + 0.9340328237337473 H+ + -1.0567497451069912 O2(aq) + 1.0 BIOMASS 
<=> -0.0647512042964504 C27-DONOR + 0.7875571275613932 HCO3- + -0.15107975146340322 NH4+ + 0.02123770294559596 HPO4-- + 0.02123770294559596 HS- + 1.0023499878615862 H+ + -1.0389940966609004 O2(aq) + 1.0 BIOMASS 
<=> -0.07397932691951703 C25-DONOR + 0.8832896032346694 HCO3- + -0.1481305719863827 NH4+ + 0.020777382677195907 HPO4-- + 0.022159251358814643 HS- + 1.095134191934257 H+ + -1.0155235356231396 O2(aq) + 1.0 BIOMASS 
<=> -0.08554259616793888 C23-DONOR + 0.9679912622715722 HCO3- + -0.13906866239732193 NH4+ + 0.018870526197844326 HPO4-- + 0.028987856508736767 HS- + 1.1737888335733193 H+ + -0.9951216961585443 O2(aq) + 1.0 BIOMASS 
<=> -0.10004064734401505 C20-DONOR + 1.0382948427518586 HCO3- + -0.11256447422133084 NH4+ + 0.019074416760258874 HPO4-- + 0.03241316973946087 HS- + 1.2214213202331676 H+ + -0.9800581627872018 O2(aq) + 1.0 BIOMASS 
<=> -0.11971837226672213 C17-DONOR + 1.104434515707214 HCO3- + -0.07772080693612873 NH4+ + 0.02144687417612402 HPO4-- + 0.05289695459111185 HS- + 1.2779460255867021 H+ + -0.9646457365071721 O2(aq) + 1.0 BIOMASS 
<=> -0.16904921609821155 C13-DONOR + 1.2504464874826797 HCO3- + 0.02106435951304586 NH4+ + 0.036862905985295624 HPO4-- + 0.09351418174797388 HS- + 1.3966221216881975 H+ + -0.9312681203109127 O2(aq) + 1.0 BIOMASS 
