,Class,C,H,N,O,P,S,lambda,Na,C13
0,Bin1,46.738643434972,72.47666459240821,0.9744866210329807,5.16925948973242,0.8089607965152458,0.864965774735532,0.012946765537951124,0,0
1,Bin2,38.22201492537314,60.94962686567164,0.9085820895522388,7.821517412935323,0.5373134328358209,0.6560945273631841,0.01685345386156336,0,0
2,Bin3,33.21878862793572,52.97033374536465,0.7855377008652658,9.080346106304079,0.39493201483312734,0.48516687268232384,0.020567705850305856,0,0
3,Bin4,29.71570453134699,44.3618870266915,0.8230912476722533,9.37554314090627,0.37306021104903786,0.3954065797641217,0.02474324457054265,0,0
4,Bin5,27.24103831891224,36.76946847960445,0.6891223733003708,10.15822002472188,0.3053152039555006,0.32941903584672433,0.029469731443056795,0,0
5,Bin6,25.229102167182663,30.21424148606811,0.7089783281733746,10.910216718266254,0.2594427244582043,0.36470588235294116,0.03468782464821967,0,0
6,Bin7,22.82196029776675,26.13771712158809,0.7803970223325062,11.100496277915633,0.19602977667493796,0.3641439205955335,0.040583983855569924,0,0
7,Bin8,20.261300309597523,22.75294117647059,0.9578947368421052,10.68297213622291,0.15665634674922602,0.32321981424148605,0.04768847091413134,0,0
8,Bin9,17.4252017380509,19.14587212911235,1.004965859714463,9.803227808814402,0.1719428926132837,0.41775294847920547,0.05720040880556093,0,0
9,Bin10,13.166770379589297,14.827629122588675,1.2470441817050404,8.757311761045425,0.19912881144990666,0.49471064094586187,0.08435818358085873,0,0
