id	name	formula	charge	inchikey	smiles	deltag	kegg id	ms id
xcpd__0_c0		C44.032805429864254H58.64705882352941N0.3433257918552036O7.252828054298643P0.3399321266968326S0.6945701357466063						
xcpd__1_c0		C34.54900849858357H46.10991501416431N0.36373937677053825O11.66742209631728P0.2413597733711048S0.9229461756373938						
xcpd__2_c0		C31.64525298465037H37.43206367254122N0.48834565093803295O13.24332006822058P0.24218305855599773S0.7447413303013075						
xcpd__3_c0		C28.915168539325844H32.42584269662921N0.6134831460674157O13.910112359550562P0.24269662921348314S0.5561797752808989						
xcpd__4_c0		C26.546368715083798H27.70949720670391N0.7268156424581006O14.08268156424581P0.24636871508379887S0.464804469273743						
xcpd__5_c0		C24.05733558178752H23.649241146711635N0.7790893760539629O13.246767847105115P0.20798201236649802S0.448566610455312						
xcpd__6_c0		C21.399328859060404H20.477628635346758N0.8355704697986577O12.296979865771812P0.20917225950782997S0.46868008948545864						
xcpd__7_c0		C18.671900378992962H17.395235517054683N0.8949648077964266O10.887384948565241P0.1277747698971305S0.5138061721710883						
xcpd__8_c0		C15.288503253796096H14.273318872017354N1.0070498915401302O8.995119305856832P0.11984815618221258S0.544468546637744						
xcpd__9_c0		C10.834444444444445H10.623888888888889N1.1394444444444445O7.056111111111111P0.12111111111111111S0.5655555555555556						
h2o_c0		H2O						
hco3_c0		HCO3						
nh4_c0		NH4						
hpo4_c0		HPO4						
hs_c0		HS						
h_c0		H						
e_c0		e-						
acceptor_c0		O2						
biom_c0		CH1.8N0.2O0.5						
