,delGcox0PerC,delGcox0,delGcox,delGcat0,delGcat,delGan0_O2,delGan0_HCO3,delGan_O2,delGan_HCO3,delGdis_O2,delGdis_HCO3,lambda_O2,lambda_HCO3
C37.115359261700725H42.0547132498352N0.3157547791694133O10.771918259723138P0.5115359261700725S0.994067237969677,75.75977195225919,2811.8511535926177,-5470.859811831364,-17878.920468029006,-19429.018309706687,-23.467175866723643,12.848359934000086,-33.28450459352567,6.179578892989958,-465.1162790697675,-492.35789483870263,0.022226124222678806,0.025659426831803674
C33.181997371879106H31.12220762155059N0.46846254927726677O13.31208935611038P0.40275952693823913S0.8528252299605782,63.22093538997686,2097.796911957951,-4710.932418239996,-14608.607358738507,-15981.205127464664,7.523618066683312,7.523618066683298,-2.8783366196741333,-2.87833661967413,-465.1162790697675,-465.1162790697674,0.028923847655000032,0.028923847655000032
C30.261467889908257H28.94102228047182N0.6553079947575361O14.81127129750983P0.3053735255570118S0.7293577981651376,57.87084389007988,1751.2566841415457,-4215.357352545836,-12787.554259501963,-14023.354426466249,4.887367739794229,4.887367739794257,-6.978507124402817,-6.978507124402796,-465.1162790697674,-465.11627906976753,0.03266962796581124,0.03266962796581124
C27.640522875816995H26.109150326797387N0.8098039215686275O15.087581699346405P0.26666666666666666S0.5176470588235295,53.90990777961692,1490.0980392156862,-3790.9958508487753,-11318.06049019608,-12431.481091748243,2.766745575470523,2.7667455754705514,-10.09419131273658,-10.094191312736541,-465.1162790697673,-465.1162790697673,0.036602403559063044,0.036602403559063044
C25.269830949284785H22.706762028608583N0.8881664499349805O14.006501950585175P0.19830949284785435S0.552665799739922,51.182053261289084,1293.361833550065,-3431.828104605721,-10119.424804941484,-11130.98441040683,1.2131563491952733,1.2131563491952306,-12.525741935883218,-12.525741935883259,-465.1162790697674,-465.11627906976753,0.040660423233612485,0.040660423233612485
C22.818589743589744H21.07371794871795N0.8685897435897436O13.411538461538461P0.2141025641025641S0.5621794871794872,49.79734528190578,1136.3051923076923,-3088.915148854943,-9033.349134615384,-9949.444546195547,0.3931896031562587,0.3931896031561877,-14.091758370498146,-14.091758370498232,-465.11627906976736,-465.1162790697674,0.04533162817332666,0.045331628173326644
C20.420891875381795H18.769089798411727N0.874160048869884O12.433109346365303P0.16615760537568725S0.5821624923640807,47.66516198510276,973.3651191203422,-2744.1321013962374,-7940.203359804519,-8757.296031951842,-0.913207004440892,-0.9132070044408351,-16.21623790150498,-16.216237901504943,-465.1162790697675,-465.11627906976753,0.05126011950839702,0.051260119508397026
C17.64460924130063H16.429549343981744N0.9229891614375356O10.81688533941814P0.12036508841985168S0.5442099258414147,46.63555332837605,822.8661152310323,-2356.866672176653,-6800.645664575013,-7499.748130582726,-1.5639313460795563,-1.5639313460795705,-16.885031255138426,-16.885031255138454,-465.1162790697674,-465.1162790697674,0.05976617347812209,0.05976617347812209
C14.384386174016687H13.393325387365913N0.9314660309892729O8.98331346841478P0.15196662693682955S0.6162097735399285,44.76592368562788,643.9303337306318,-1914.637397988327,-5455.165733015496,-6029.135936285869,-2.7803503933232037,-2.7803503933231752,-19.340556196984167,-19.34055619698417,-465.1162790697674,-465.1162790697673,0.0739369169286627,0.0739369169286627
C10.092474489795919H10.149872448979592N0.9387755102040817O7.130102040816326P0.1485969387755102S0.7110969387755102,38.82189573459718,391.808992346939,-1322.387652243868,-3629.156664540817,-4034.9629481164675,-6.974257406470144,-6.974257406470208,-27.047309772616266,-27.04730977261631,-465.1162790697676,-465.11627906976753,0.10856827557775793,0.1085682755777579
