,donor,h2o,hco3,nh4,hpo4,hs,h,e,acceptor,biom
C47.45421245421245H74.23296703296704N0.9142857142857143O5.073260073260073P0.7633699633699633S0.8549450549450549,-0.033677892408096176,-0.06169553159905011,0.5981578613439045,-0.16920878408402637,0.025708691493945945,0.028792747575273434,0.8475767759910963,0.0,-1.0823780557514526,1.0
C39.04084609773888H63.76805251641138N0.8847556528081693O8.174325309992707P0.4412837345003647S0.6010211524434719,-0.04207186726033981,-0.010070286068504158,0.6425212947554255,-0.1627766776172194,0.01856563070204638,0.02528608214625821,0.8677153159229947,0.0,-1.0739234958105541,1.0
C33.72133526850508H55.068214804063864N0.7641509433962265O9.216255442670537P0.31567489114658925S0.46734397677793904,-0.04981523633748415,-0.01218673782292673,0.6798362860161201,-0.16193364015720552,0.015725419308276926,0.023280850654092737,0.8965016154439724,0.0,-1.0655569272176417,1.0
C29.847889374090247H46.13755458515284N0.74745269286754O9.279475982532752P0.3231441048034934S0.39446870451237265,-0.05782260620883936,-0.10765218245795444,0.725882753443021,-0.1567803372805837,0.018685034320760317,0.022809208562729937,0.9428423679278556,0.0,-1.0540863647958885,1.0
C27.164473684210527H38.01973684210526N0.706140350877193O9.841374269005849P0.2887426900584795S0.3084795321637427,-0.06636353588602797,-0.26067616610512895,0.8027305241671681,-0.15313802948398902,0.019161985873524162,0.02047179250285366,1.0146643179010588,0.0,-1.035527477710735,1.0
C25.41484716157205H30.895924308588064N0.6441048034934498O10.829694323144105P0.23580786026200873S0.31004366812227074,-0.0751918540111634,-0.47198471747734816,0.9109894774889562,-0.15156856564783144,0.017730830203505778,0.02331275823053538,1.121332461774334,0.0,-1.0088011206360834,1.0
C23.067883211678833H26.130656934306568N0.6686131386861314O11.097810218978102P0.1948905109489051S0.3102189781021898,-0.08629231639250592,-0.6016837281678986,0.9905810766075656,-0.1423038234923099,0.016817553632700058,0.02676951420935403,1.1932895215746273,0.0,-0.9898369827527771,1.0
C20.355994152046783H22.41374269005848N0.8421052631578947O10.388157894736842P0.1695906432748538S0.29385964912280704,-0.10044670539390763,-0.7009487578042767,1.0446925475907498,-0.11541330072091988,0.01703482138259252,0.029517233602595665,1.2236927246794504,0.0,-0.9789059674301578,1.0
C17.560029282576867H18.584919472913615N0.9048316251830161O9.561493411420205P0.17349926793557832S0.40995607613469986,-0.12009368534663015,-0.8363671281329881,1.108848631339398,-0.09133543551359088,0.020836166491326025,0.04923313601325981,1.2910895358488992,0.0,-0.9626242253277679,1.0
C13.183150183150182H14.372893772893773N1.1633699633699635O8.563369963369963P0.19706959706959706S0.5772893772893772,-0.17086018735662617,-1.0719010572355796,1.2524755102435805,-0.0012263900935367555,0.03367134827760618,0.09863577116265304,1.4196803680549845,0.0,-0.9285359351300448,1.0
