,donor,h2o,hco3,nh4,hpo4,hs,h,e,acceptor,biom
C36.417766051011434H51.961301671064206N0.36147757255936674O9.883025505716798P0.3843447669305189S0.6209322779243623,-0.04735737784154829,-0.17666041883574019,0.7246499070228584,-0.18288137001506038,0.018201560348950395,0.0294057244996773,0.9733401222354976,0.0,-1.0510306852683737,1.0
C32.03957783641161H32.16974494283201N0.3333333333333333O14.297273526824979P0.3148636763412489S0.46613896218117856,-0.061995575737237796,-0.6782977183637775,0.9863120743463814,-0.1793348080875874,0.019520154893519024,0.02889855333398068,1.2335857455549857,0.0,-0.9861757102405799,1.0
C28.793609671848014H27.11917098445596N0.5768566493955095O14.691709844559586P0.24352331606217617S0.31519861830742657,-0.07217344672682165,-0.8110554778487673,1.0781340537240192,-0.15836626734584036,0.01757591707855242,0.022748970686778842,1.2944011259137462,0.0,-0.966649506922629,1.0
C25.902608695652173H23.866086956521738N0.7269565217391304O13.47391304347826P0.21391304347826087S0.4008695652173913,-0.08150064705077197,-0.8862219507169216,1.1110793689986045,-0.1407525731004823,0.017434051456078174,0.03267112894817902,1.3193711739594218,0.0,-0.9593098653769451,1.0
C23.631211857018307H21.375762859633827N0.8012205754141238O12.727114210985178P0.1822144725370532S0.43679163034001744,-0.09087756412579379,-0.9500111727457721,1.1475469709063997,-0.12718702577889757,0.016559207412633743,0.03969455939583495,1.3475469709064019,0.0,-0.9511287158894275,1.0
C21.31542461005199H18.972270363951473N0.7894280762564991O11.853552859618718P0.15511265164644714S0.4748700173310225,-0.10224034765000067,-1.0028367978250512,1.1792964224390956,-0.1192885990388643,0.015858771429246202,0.04855087566048558,1.378853439996936,0.0,-0.9432880949770714,1.0
C18.914429530201343H17.026845637583893N0.8171140939597316O10.63003355704698P0.12080536912751678S0.6040268456375839,-0.1162989194856821,-1.0434920417706934,1.1997277170504943,-0.1049705137759611,0.014049533897599182,0.0702476694879959,1.4030449681096495,0.0,-0.9378139140950399,1.0
C16.319327731092436H14.774789915966387N0.9252100840336135O9.201680672268907P0.12016806722689076S0.5907563025210084,-0.13614418914226836,-1.1099420237812248,1.2217816412965137,-0.07403802332299371,0.016360184073398634,0.08042803778740727,1.4089680705537124,0.0,-0.9340441412648889,1.0
C13.512842465753424H12.965753424657533N0.9794520547945206O8.043664383561644P0.1284246575342466S0.6583904109589042,-0.16697931515666334,-1.1612851890632894,1.256365180751385,-0.03645176666162428,0.021444261364297522,0.10993757992763195,1.445643050069238,0.0,-0.925230914265444,1.0
C9.872322193658954H9.984575835475578N0.9794344473007712O6.484147386461011P0.09854327335047129S0.6863753213367609,-0.238796956829661,-1.3153683711251491,1.3574804966876814,0.03388596542956515,0.023531833792125978,0.1639043379781992,1.5345625368205678,0.0,-0.9014028952922554,1.0
