,delGcox0PerC,delGcox0,delGcox,delGcat0,delGcat,delGan0_O2,delGan0_HCO3,delGan_O2,delGan_HCO3,delGdis_O2,delGdis_HCO3,lambda_O2,lambda_HCO3
C36.417766051011434H51.961301671064206N0.36147757255936674O9.883025505716798P0.3843447669305189S0.6209322779243623,85.17890936315113,3102.0255936675453,-5480.041226501809,-18676.966622691292,-20172.321961081023,-54.60816613133048,16.21586636533935,-63.72232170684616,12.772176300615612,-465.1162790697675,-521.4202320315402,0.01989825257287391,0.026481453615641616
C32.03957783641161H32.16974494283201N0.3333333333333333O14.297273526824979P0.3148636763412489S0.46613896218117856,63.161813390430694,2023.6778364116094,-4532.55057906215,-14099.386499560242,-15409.297545703217,7.495804758525566,7.495804758525537,-2.434296401032867,-2.434296401032844,-465.1162790697676,-465.1162790697675,0.030026156695101947,0.030026156695101947
C28.793609671848014H27.11917098445596N0.5768566493955095O14.691709844559586P0.24352331606217617S0.31519861830742657,56.92714812704313,1639.1380829015536,-3982.967302427056,-12077.447279792741,-13236.28448379558,4.395907931945786,4.3959079319457,-7.204149106114668,-7.204149106114745,-465.11627906976736,-465.1162790697673,0.034595216695761426,0.03459521669576142
C25.902608695652173H23.866086956521738N0.7269565217391304O13.47391304347826P0.21391304347826087S0.4008695652173913,54.80436417349267,1419.5759999999998,-3556.966987625321,-10683.029913043478,-11721.480842442314,3.259157025959354,3.259157025959297,-9.021046270351336,-9.02104627035137,-465.1162790697672,-465.11627906976724,0.03891105901465459,0.03891105901465459
C23.631211857018307H21.375762859633827N0.8012205754141238O12.727114210985178P0.1822144725370532S0.43679163034001744,52.527559490868825,1241.2898866608539,-3219.7652353539797,-9568.353792502177,-10512.036521246624,1.9894316427128729,1.9894316427128445,-11.06196271715358,-11.061962717153609,-465.11627906976753,-465.1162790697676,0.04319375369700176,0.04319375369700176
C21.31542461005199H18.972270363951473N0.7894280762564991O11.853552859618718P0.15511265164644714S0.4748700173310225,50.569818684445906,1077.9171577123052,-2887.323526293052,-8492.718587521664,-9343.750241563952,0.8533022201480094,0.8533022201480946,-13.033650736163015,-13.033650736162954,-465.1162790697675,-465.1162790697674,0.04838342385508102,0.04838342385508103
C18.914429530201343H17.026845637583893N0.8171140939597316O10.63003355704698P0.12080536912751678S0.6040268456375839,49.317652798722605,932.8152684563757,-2553.882870934978,-7457.785906040266,-8214.248913721738,0.10399479729068162,0.10399479729068162,-14.41946868629096,-14.419468686290978,-465.1162790697675,-465.1162790697674,0.05486768359680414,0.05486768359680414
C16.319327731092436H14.774789915966387N0.9252100840336135O9.201680672268907P0.12016806722689076S0.5907563025210084,48.10164778578784,784.9865546218485,-2190.7819731018467,-6368.952773109242,-7016.886134258698,-0.6413158805211907,-0.6413158805212191,-15.378253091429693,-15.378253091429722,-465.1162790697676,-465.1162790697674,0.06409367593733237,0.06409367593733235
C13.512842465753424H12.965753424657533N0.9794520547945206O8.043664383561644P0.1284246575342466S0.6583904109589042,46.09604637901537,622.8886130136982,-1803.7016597972881,-5184.063313356164,-5721.117445930276,-1.9102670719792059,-1.9102670719791774,-17.63404269022959,-17.634042690229567,-465.11627906976753,-465.1162790697674,0.07821588013332167,0.07821588013332167
C9.872322193658954H9.984575835475578N0.9794344473007712O6.484147386461011P0.09854327335047129S0.6863753213367609,40.66342331394843,401.442416452442,-1294.2873251962596,-3610.0981576692366,-4000.5043855467475,-5.6184485922509,-5.618448592250843,-23.834960228124803,-23.834960228124753,-465.1162790697673,-465.11627906976753,0.11030642046936111,0.11030642046936112
