id	direction	compartment	gpr	name	enzyme	deltag	reference	equation	definition	ms id	bigg id	kegg id	kegg pathways	metacyc pathways
xrxn1_c0								(0.041047159034923106)  xcpd__0[c0] + (0.2862402950711913)  h2o[c0] + (0.18344805542462067)  nh4[c0] + (1.0514211593160139)  acceptor[c0] <=> (0.7169107533918594)  hco3[c0] + (0.02181280133112175)  hpo4[c0] + (0.036077416882265234)  hs[c0] + (0.9800618283609902)  h[c0] + (1.0)  biom[c0]						
xrxn2_c0								(0.05325504579457932)  xcpd__1[c0] + (0.4374268404966518)  h2o[c0] + (0.1748405600545589)  nh4[c0] + (1.0238220589718154)  acceptor[c0] <=> (0.826618439722015)  hco3[c0] + (0.023004455795938666)  hpo4[c0] + (0.04555097746010806)  hs[c0] + (1.093018888828558)  h[c0] + (1.0)  biom[c0]						
xrxn3_c0								(0.06084440164493864)  xcpd__2[c0] + (0.5712126770121846)  h2o[c0] + (0.16672859003705773)  nh4[c0] + (1.0058116231522245)  acceptor[c0] <=> (0.9056920017724662)  hco3[c0] + (0.021752026771352687)  hpo4[c0] + (0.04074675437450574)  hs[c0] + (1.1566713997267342)  h[c0] + (1.0)  biom[c0]						
xrxn4_c0								(0.06878696405337056)  xcpd__3[c0] + (0.6377498667388385)  h2o[c0] + (0.1531972113928323)  nh4[c0] + (0.9905359072766831)  acceptor[c0] <=> (0.9761561482066309)  hco3[c0] + (0.019046038790656875)  hpo4[c0] + (0.03864513859882829)  hs[c0] + (1.2060905757796019)  h[c0] + (1.0)  biom[c0]						
xrxn5_c0								(0.07809237453466977)  xcpd__4[c0] + (0.6999277780535401)  h2o[c0] + (0.1390013086468322)  nh4[c0] + (0.9782357574982788)  acceptor[c0] <=> (1.0301285511839016)  hco3[c0] + (0.01861572346478635)  hpo4[c0] + (0.043241554714849625)  hs[c0] + (1.2496028614751546)  h[c0] + (1.0)  biom[c0]						
xrxn6_c0								(0.08925877546205077)  xcpd__5[c0] + (0.7838602721497667)  h2o[c0] + (0.1241166654163784)  nh4[c0] + (0.9656566479778146)  acceptor[c0] <=> (1.0857216657793194)  hco3[c0] + (0.018324354003447986)  hpo4[c0] + (0.04708155189207074)  hs[c0] + (1.2935685910946653)  h[c0] + (1.0)  biom[c0]						
xrxn7_c0								(0.10373125969029437)  xcpd__6[c0] + (0.8417373789618292)  h2o[c0] + (0.11095943719335272)  nh4[c0] + (0.9547572354067114)  acceptor[c0] <=> (1.1332385844230146)  hco3[c0] + (0.01797742906778505)  hpo4[c0] + (0.05238851905626005)  hs[c0] + (1.3325413988082007)  h[c0] + (5.551115123125783e-17)  e[c0] + (1.0)  biom[c0]						
xrxn8_c0								(0.12396244584878313)  xcpd__7[c0] + (0.9601953189508734)  h2o[c0] + (0.08050314157577404)  nh4[c0] + (0.9445065757188276)  acceptor[c0] <=> (1.1846897262241762)  hco3[c0] + (0.01509255496654131)  hpo4[c0] + (0.06472275444453109)  hs[c0] + (1.3601007321775622)  h[c0] + (1.0)  biom[c0]						
xrxn9_c0								(0.15928229033807922)  xcpd__8[c0] + (1.0963201168905186)  h2o[c0] + (0.037104500807370794)  nh4[c0] + (0.927479096021428)  acceptor[c0] <=> (1.2547176004236706)  hco3[c0] + (0.022055629049648966)  hpo4[c0] + (0.09070659728609899)  hs[c0] + (1.4266399566164378)  h[c0] + (1.0)  biom[c0]						
xrxn10_c0								(0.24668231421364534)  xcpd__9[c0] + (1.4495697145628919)  h2o[c0] + (1.1102230246251565e-16)  e[c0] + (0.8896872546098598)  acceptor[c0] <=> (1.4126674293465804)  hco3[c0] + (0.0780804578086727)  nh4[c0] + (0.02604342143153434)  hpo4[c0] + (0.184251121716556)  hs[c0] + (1.5709249361175321)  h[c0] + (1.0)  biom[c0]						
