,donor,h2o,hco3,nh4,hpo4,hs,h,e,acceptor,biom
C40.81439960139512H58.05717488789238N0.5325112107623319O8.73006975585451P0.30269058295964124S0.7798953662182362,-0.04109984243092989,-0.177745113135482,0.6774653925303468,-0.17811387314496446,0.03205357666418187,0.012440535264967566,0.9321269542686409,0.0,-1.0620304398678195,1.0
C24.750488145048813H30.103068340306834N0.6443514644351465O11.013668061366806P0.23165969316596932S0.46638772663877265,-0.07690402848129979,-0.49183467394384245,0.9034122452329068,-0.15044677662711228,0.03586709501275683,0.017815563641204873,1.143408775526738,0.0,-1.007437499765485,1.0
C16.206577266922096H16.661877394636015N0.9121966794380587O9.03544061302682P0.1583652618135377S0.4051724137931034,-0.12911734258717725,-0.8924720198345744,1.092550189138739,-0.08221958883411068,0.052314785358597675,0.020447701763486564,1.2998470504535309,0.0,-0.9639028039788771,1.0
C11.923271500843171H12.138279932546375N1.2293423271500843O7.252951096121416P0.1433389544688027S0.4274873524451939,-0.1835325040038882,-1.1568539262488344,1.1883078744679456,0.025624275579822095,0.07845782422425912,0.02630735723495868,1.3459066045716008,0.0,-0.9453743589815649,1.0
C9.589285714285714H9.649553571428571N1.3950892857142858O6.15625P0.125S0.4263392857142857,-0.23718799555862682,-1.4077643098993986,1.2744634574104032,0.13089843130388784,0.10112256060646813,0.029648499444828353,1.3754586467642778,0.0,-0.9299638535499435,1.0
C8.066666666666666H8.24N1.4533333333333334O5.16P0.12S0.3,-0.2913918006943652,-1.551353758649931,1.350560525601213,0.22348941700914413,0.08741754020830957,0.034967016083323824,1.3368732050920105,0.0,-0.9232081437020103,1.0
C7.266666666666667H7.973333333333334N1.5333333333333334O5.693333333333333P0.17333333333333334S0.22666666666666666,-0.35352725095815196,-1.7541593825050068,1.5689646902959042,0.3420751181358331,0.08013284355051445,0.06127805683274634,1.448433316093849,0.0,-0.8802587902315097,1.0
C6.761904761904762H6.428571428571429N1.9047619047619047O4.666666666666667P0.14285714285714285S0.09523809523809523,-0.41090295926028275,-2.3491364655271294,1.7784866769028644,0.5826723033529194,0.03913361516764598,0.058700422751468966,1.3327820266367076,0.0,-0.8626554413186968,1.0
C5.444444444444445H5.444444444444445N1.1111111111111112O4.222222222222222P0.1111111111111111S0.2222222222222222,-0.4713572579119479,-1.8782267465744154,1.566278404187272,0.32373028656883096,0.1047460573137662,0.0523730286568831,1.504413260902856,0.0,-0.8747088031404543,1.0
C5.0H5.2N1.4O4.6P0.2S0.4,-0.55705866405877,-2.5524109195114817,1.7852933202938501,0.579882129682278,0.22282346562350802,0.11141173281175401,1.7624698546703434,0.0,-0.8161465245968799,1.0
