,donor,h2o,hco3,nh4,hpo4,hs,h,e,acceptor,biom
C46.805961754780654H65.60517435320585N0.4251968503937008O6.667604049493813P0.46906636670416196S0.7137232845894264,-0.03542876086972116,-0.16893249738598357,0.658277226287438,-0.18493580246484298,0.01661844013799069,0.025286331576870727,0.9017362406051301,0.0,-1.0680739962923966,1.0
C36.126064735945484H53.72913117546848N0.44349801249290177O9.42816581487791P0.22487223168654175S0.8807495741056218,-0.04744647154022638,-0.12878163001049547,0.7140543023544131,-0.17895758417210858,0.010669393940902695,0.04178845960186889,0.9561391340101936,0.0,-1.0543628259021076,1.0
C33.1672335600907H43.48922902494331N0.4580498866213152O12.01984126984127P0.2545351473922903S0.8526077097505669,-0.055204859104784836,-0.3366593982242233,0.8309924555802983,-0.17471342054610764,0.014051576949007025,0.04706808848843333,1.0808771185128518,0.0,-1.0244853162746173,1.0
C30.314366197183098H36.58985915492958N0.48056338028169016O13.147605633802817P0.24112676056338028S0.6315492957746479,-0.06319022655705207,-0.467824311426062,0.9155716679334412,-0.16963309112497724,0.015236854628968049,0.039907743081946695,1.1555862113983029,0.0,-1.00451896610368,1.0
C27.562850729517397H31.7317620650954N0.6212121212121212O14.078563411896745P0.24859708193041527S0.47474747474747475,-0.07252496402617965,-0.5773776717669497,0.9989947576172088,-0.15494661325646417,0.018029494424016603,0.03443104352758024,1.2244314032492865,0.0,-0.9853386368963212,1.0
C24.826450892857142H26.564732142857142N0.7661830357142857O13.4375P0.25502232142857145S0.46372767857142855,-0.08323737604688582,-0.7270024860633881,1.066488628878294,-0.13622493453550544,0.021227388869099792,0.0385994751645994,1.2837678163165986,0.0,-0.969435357708933,1.0
C22.16899051868377H22.161740100390407N0.8059118795315114O12.362520914668155P0.20022308979364195S0.47071946458449526,-0.09581685329008464,-0.8521387001896119,1.1241629121180003,-0.12278005967419281,0.019184746420044835,0.04510285787887978,1.330415322511164,0.0,-0.9562755845341037,1.0
C19.259055982436884H18.553787047200878N0.8534577387486278O11.03238199780461P0.16575192096597147S0.4818880351262349,-0.11271221777644164,-0.9517424097876113,1.1707309120611071,-0.10380488548717524,0.018682266612780114,0.054314669159009746,1.3662149999328508,0.0,-0.945847575258692,1.0
C15.80718954248366H15.576252723311546N1.002723311546841O9.236383442265796P0.119281045751634S0.49618736383442263,-0.13979911500867453,-1.0257073145002293,1.2098311088135911,-0.059820168447184185,0.016675384633387653,0.0693665543425395,1.3723686008700886,0.0,-0.9396246596822803,1.0
C11.393736017897092H11.246085011185682N1.1593959731543624O7.275167785234899P0.09675615212527965S0.5234899328859061,-0.20538397859061713,-1.2797147197598413,1.34009083436692,0.03812135772838329,0.01987216347660893,0.10751644516824253,1.4492302487599955,0.0,-0.9129217663007616,1.0
