﻿Time-CO2 mols [d],Total CO2 mols [umol],Time-pH [d],pH 
0,17.74520777,0,6.264
1.084027778,81.7342345,11.07986111,7.67
3.042361111,289.6382737,,
4.086111111,407.1846165,,
7.090277778,545.6161005,,
8.086805556,587.9337573,,
8.906944444,558.7574859,,
9.929166667,551.9690965,,
11.05069444,530.4826586,,
13.94305556,576.948483,,
14.86736111,594.0476719,,
16.06319444,549.1568297,,
17.13680556,493.9690238,,
20.84861111,562.1841415,,
