,Class,C,H,N,O,P,S,lambda,Na,C13
0,Bin1,47.41695621959694,73.95969423210563,0.9075747046560111,5.069492703266157,0.8241834607366226,0.8554551772063933,0.012636396154706788,0,0
1,Bin2,39.743961352657,63.65769496204279,0.9151138716356108,7.974465148378192,0.5010351966873706,0.6473429951690821,0.01614152791116242,0,0
2,Bin3,34.35798203178991,56.04008293020041,0.7857636489288182,9.049758120248791,0.41257774706288874,0.5017277125086386,0.01938981293788717,0,0
3,Bin4,30.520500347463518,48.002084781097984,0.8207088255733148,8.98679638637943,0.35997220291869353,0.44892286309937457,0.023045283352464335,0,0
4,Bin5,27.510034602076125,40.65259515570934,0.7771626297577855,9.51349480968858,0.29896193771626295,0.356401384083045,0.02754880554864661,0,0
5,Bin6,25.67844767844768,33.06791406791407,0.6763686763686764,10.638253638253639,0.24047124047124047,0.3090783090783091,0.03282808493784949,0,0
6,Bin7,23.295755045233125,27.57759220598469,0.6645789839944328,11.197633959638136,0.18093249826026445,0.3082811412665275,0.038948945163575305,0,0
7,Bin8,20.735457063711912,23.222991689750693,0.896814404432133,10.887811634349031,0.15443213296398892,0.26662049861495846,0.04634263376495934,0,0
8,Bin9,17.685236768802227,19.450557103064067,0.9519498607242339,9.837743732590528,0.1671309192200557,0.37952646239554316,0.056058627949091645,0,0
9,Bin10,13.252433936022253,14.623783031988873,1.1543810848400555,8.679415855354659,0.19680111265646733,0.5006954102920723,0.0837324272313983,0,0
