id	direction	compartment	gpr	name	enzyme	deltag	reference	equation	definition	ms id	bigg id	kegg id	kegg pathways	metacyc pathways
xrxn1_c0								(0.0379312368423537)  xcpd__0[c0] + (0.11047679913837427)  h2o[c0] + (0.16824785459904848)  nh4[c0] + (1.075142656928611)  acceptor[c0] <=> (0.6200156021502701)  hco3[c0] + (0.032882244720618015)  hpo4[c0] + (0.03244478691945679)  hs[c0] + (0.8864727331100107)  h[c0] + (1.0)  biom[c0]						
xrxn2_c0								(0.04876924502490192)  xcpd__1[c0] + (0.15094482522365116)  h2o[c0] + (0.16386248158174016)  nh4[c0] + (1.0596155207360023)  acceptor[c0] <=> (0.6900500264155701)  hco3[c0] + (0.02995055028439435)  hpo4[c0] + (0.025029098359728615)  hs[c0] + (0.9388427069258264)  h[c0] + (1.0)  biom[c0]						
xrxn3_c0								(0.05655441049557619)  xcpd__2[c0] + (0.3042015098529806)  h2o[c0] + (0.15778103297137736)  nh4[c0] + (1.0397574165334864)  acceptor[c0] <=> (0.7756130062410885)  hco3[c0] + (0.02755771802832925)  hpo4[c0] + (0.02269778548934311)  hs[c0] + (1.0112072607584666)  h[c0] + (1.0)  biom[c0]						
xrxn4_c0								(0.06405869061393787)  xcpd__3[c0] + (0.5000585129235539)  h2o[c0] + (0.1482104907452283)  nh4[c0] + (1.0182048039626552)  acceptor[c0] <=> (0.8654396271035719)  hco3[c0] + (0.02842257591244019)  hpo4[c0] + (0.0233361062534894)  hs[c0] + (1.0938313759271687)  h[c0] + (1.0)  biom[c0]						
xrxn5_c0								(0.0720689329067685)  xcpd__4[c0] + (0.6457911152364223)  h2o[c0] + (0.13605344921643941)  nh4[c0] + (1.0016070320147676)  acceptor[c0] <=> (0.9539147368591505)  hco3[c0] + (0.02753349872273868)  hpo4[c0] + (0.02956409425354066)  hs[c0] + (1.1745992777746075)  h[c0] + (8.470329472543003e-22)  e[c0] + (1.0)  biom[c0]						
xrxn6_c0								(0.08097673733620572)  xcpd__5[c0] + (0.6792210801373347)  h2o[c0] + (0.12832015773664374)  nh4[c0] + (0.9863520529209224)  acceptor[c0] <=> (1.0013324460603783)  hco3[c0] + (0.022578173748348727)  hpo4[c0] + (0.036914142201019975)  hs[c0] + (1.2117230934947414)  h[c0] + (1.0)  biom[c0]						
xrxn7_c0								(0.09166908084554204)  xcpd__6[c0] + (0.7300989050114185)  h2o[c0] + (0.11315095283133403)  nh4[c0] + (0.9737287266549969)  acceptor[c0] <=> (1.0567835447601788)  hco3[c0] + (0.022950435580721813)  hpo4[c0] + (0.04046175059028989)  hs[c0] + (1.2562971193432448)  h[c0] + (1.0)  biom[c0]						
xrxn8_c0								(0.1054749485821706)  xcpd__7[c0] + (0.8032464432531696)  h2o[c0] + (0.08143580815943594)  nh4[c0] + (0.9648048920240658)  acceptor[c0] <=> (1.1030558170162184)  hco3[c0] + (0.0214602709236451)  hpo4[c0] + (0.05088570150452964)  hs[c0] + (1.278297868527471)  h[c0] + (1.0)  biom[c0]						
xrxn9_c0								(0.12478060737413305)  xcpd__8[c0] + (0.8814980410168912)  h2o[c0] + (0.048686968396362315)  nh4[c0] + (0.9508215423501298)  acceptor[c0] <=> (1.161279536499991)  hco3[c0] + (0.024607168956615435)  hpo4[c0] + (0.07279871500612392)  hs[c0] + (1.331979557815707)  h[c0] + (1.0)  biom[c0]						
xrxn10_c0								(0.1722247359787823)  xcpd__9[c0] + (1.1200270239288455)  h2o[c0] + (0.9211691782380462)  acceptor[c0] <=> (1.2897474452989433)  hco3[c0] + (0.038548340158323036)  nh4[c0] + (0.04124394983526716)  hpo4[c0] + (0.10540120513457163)  hs[c0] + (1.4390882099457247)  h[c0] + (1.0)  biom[c0]						
