  PRIMARY_SPECIES
    HCO3-
    NH4+
    HPO4--
    HS-
    H+
    O2(aq)
    BIOMASS
    C42-DONOR
    C34-DONOR
    C31-DONOR
    C29-DONOR
    C27-DONOR
    C24-DONOR
    C22-DONOR
    C19-DONOR
    C17-DONOR
    C13-DONOR
  /
